…
```
## # A tibble: 188 x 3
## # Groups:   salary [?]
##     salary PlayerYear name            
##      <int>      <int> <fct>           
##  1  715850       2002 Bruce Bowen     
##  2  915243       2015 Patrick Beverley
##  3 1471382       2018 Tony Allen      
##  4 1671694       2005 Andrei Kirilenko
##  5 1763115       2006 Tayshaun Prince 
##  6 2094922       2010 Rajon Rondo     
##  7 2119214       2015 Jimmy Butler    
##  8 2253061       2013 Serge Ibaka     
##  9 2500000       2000 Eddie Jones     
## 10 2511432       2014 Avery Bradley   
## # ... with 178 more rows
```
…
